^C:\USERS\ADAM\REPOS\KURS-WINDOWS-.NET\2.2\ISPRIMEDLL\ISPRIMEDLL\STDAFX.CPP
C:\USERS\ADAM\REPOS\KURS-WINDOWS-.NET\2.2\ISPRIMEDLL\ISPRIMEDLL\DEBUG\ISPRIMEDLL.PCH
C:\USERS\ADAM\REPOS\KURS-WINDOWS-.NET\2.2\ISPRIMEDLL\ISPRIMEDLL\DEBUG\VC140.PDB
C:\USERS\ADAM\REPOS\KURS-WINDOWS-.NET\2.2\ISPRIMEDLL\ISPRIMEDLL\DEBUG\VC140.IDB
C:\USERS\ADAM\REPOS\KURS-WINDOWS-.NET\2.2\ISPRIMEDLL\ISPRIMEDLL\DEBUG\STDAFX.OBJ
^C:\USERS\ADAM\REPOS\KURS-WINDOWS-.NET\2.2\ISPRIMEDLL\ISPRIMEDLL\DLLMAIN.CPP
C:\USERS\ADAM\REPOS\KURS-WINDOWS-.NET\2.2\ISPRIMEDLL\ISPRIMEDLL\DEBUG\VC140.PDB
C:\USERS\ADAM\REPOS\KURS-WINDOWS-.NET\2.2\ISPRIMEDLL\ISPRIMEDLL\DEBUG\VC140.IDB
C:\USERS\ADAM\REPOS\KURS-WINDOWS-.NET\2.2\ISPRIMEDLL\ISPRIMEDLL\DEBUG\DLLMAIN.OBJ
^C:\USERS\ADAM\REPOS\KURS-WINDOWS-.NET\2.2\ISPRIMEDLL\ISPRIMEDLL\ISPRIMEDLL.CPP
C:\USERS\ADAM\REPOS\KURS-WINDOWS-.NET\2.2\ISPRIMEDLL\ISPRIMEDLL\DEBUG\VC140.PDB
C:\USERS\ADAM\REPOS\KURS-WINDOWS-.NET\2.2\ISPRIMEDLL\ISPRIMEDLL\DEBUG\VC140.IDB
C:\USERS\ADAM\REPOS\KURS-WINDOWS-.NET\2.2\ISPRIMEDLL\ISPRIMEDLL\DEBUG\ISPRIMEDLL.OBJ
